After initialization : 
0 
Signal : 
3276 
6552 
9828 
0 
3276 
6552 
9828 
13104 
16380 
19656 
22932 
26208 
29484 
32760 
36036 
39312 
42588 
0 
3276 
6552 
0 
3276 
6552 
0 
3276 
6552 
9828 
13104 
16380 
19656 
22932 
26208 
29484 
32760 
36036 
39312 
42588 
0 
3276 
6552 
0 
3276 
6552 
0 
3276 
6552 
9828 
13104 
16380 
19656 
22932 
26208 
29484 
32760 
36036 
39312 
42588 
0 
3276 
6552 
0 
3276 
6552 
0 
3276 
6552 
9828 
13104 
16380 
19656 
22932 
26208 
29484 
32760 
36036 
39312 
42588 
0 
3276 
6552 
0 
3276 
6552 
0 
3276 
6552 
9828 
13104 
16380 
19656 
22932 
26208 
29484 
32760 
36036 
39312 
42588 
0 
3276 
6552 
0 
3276 
6552 
0 
3276 
6552 
9828 
13104 
16380 
19656 
22932 
26208 
29484 
32760 
36036 
39312 
42588 
0 
3276 
6552 
0 
3276 
6552 
0 
3276 
6552 
9828 
13104 
16380 
19656 
22932 
26208 
29484 
32760 
36036 
39312 
42588 
0 
3276 
6552 
0 
3276 
6552 
0 
3276 
6552 
9828 
13104 
16380 
19656 
22932 
26208 
29484 
32760 
36036 
39312 
42588 
0 
3276 
6552 
0 
3276 
6552 
0 
3276 
6552 
9828 
13104 
16380 
19656 
22932 
26208 
29484 
32760 
36036 
39312 
42588 
0 
3276 
6552 
0 
3276 
6552 
0 
3276 
6552 
9828 
13104 
16380 
19656 
22932 
26208 
29484 
32760 
36036 
39312 
42588 
0 
3276 
6552 
0 
