0
0
-48
-236
-561
-972
-1508
-2160
-2874
-3684
-4575
-5489
-6459
-7466
-8451
-9444
-10428
-11342
-12219
-13043
-13757
-14395
-14945
-15356
-15667
-15869
-15917
-15857
-15684
-15360
-14937
-14416
-13764
-13038
-12244
-11353
-10427
-9473
-8466
-7469
-6491
-5508
-4582
-3720
-2897
-2171
-1548
-998
-575
-280
-78
-18
-94
-267
-579
-1018
-1539
-2178
-2920
-3715
-4593
-5535
-6490
-7484
-8497
-9475
-10446
-11388
-12250
-13061
-13803
-14426
-14963
-15402
-15698
-15887
-15963
-15888
-15702
-15406
-14968
-14434
-13810
-13069
-12262
-11399
-10458
-9491
-8512
-7500
-6509
-5554
-4613
-3738
-2943
-2202
-1566
-1044
-606
-298
-124
-49
-112
-313
-610
-1036
-1585
-2209
-2938
-3761
-4624
-5553
-6536
-7515
-8515
-9521
-10477
-11406
-12296
-13092
-13821
-14472
-14994
-15420
-15744
-15918
-15981
-15934
-15733
-15424
-15014
-14465
-13828
-13115
-12293
-11417
-10504
-9522
-8530
-7546
-6540
-5572
-4659
-3769
-2961
-2248
-1597
-1062
-652
-329
-142
-95
-144
-332
-656
-1068
-1604
-2255
-2970
-3780
-4670
-5585
-6555
-7561
-8547
-9540
-10523
-11438
-12315
-13138
-13853
-14491
-15040
-15452
-15763
-15964
-16013
-15952
-15778
-15456
-15032
-14510
-13860
-13133
-12338
-11449
-10522
-9567
-8562
-7564
-6585
-5604
-4677
-3814
-2993
-2266
-1642
-1094
-670
-374
-174
-113
-189
-364
-674
-1113
-1636
-2273
-3015
-3812
-4688
-5630
-6587
-7579
-8592
-9572
-10541
-11483
-12347
-13156
-13898
-14523
-15058
-15497
-15795
-15982
-16058
-15985
-15797
-15501
-15065
-14529
-13905
-13166
-12357
-11494
-10555
-9586
-8607
-7597
-6604
-5649
-4710
-3833
-3038
-2299
-1661
-1139
-703
-393
-219
-146
-208
-409
-707
-1132
-1681
-2306
-3034
-3857
-4721
-5649
-6632
-7612
-8611
-9617
-10574
-11502
-12392
-13189
-13917
-14568
-15091
-15516
-15840
-16015
-16077
-16029
-15829
-15520
-15109
-14561
-13924
-13210
-12389
-11513
-10599
-9618
-8626
-7641
-6636
-5668
-4754
-3865
-3057
-2343
-1693
-1158
-747
-425
-238
-190
-240
-428
-751
-1164
-1700
-2350
-3066
-3876
-4765
-5681
-6651
-7656
-8643
-9636
-10618
-11534
-12411
-13233
-13949
-14587
-15135
-15548
-15859
-16059
-16109
-16049
-15874
-15552
-15129
-14606
-13956
-13230
-12434
-11545
-10619
-9663
-8658
-7661
-6681
-5700
-4774
-3910
-3089
-2363
-1738
-1190
-767
-470
-270
-210
-285
-460
-771
-1209
-1732
-2370
-3111
-3908
-4785
-5726
-6683
-7676
-8688
-9668
-10638
-11579
-12443
-13253
-13994
-14619
-15155
-15593
-15891
-16079
-16154
-16081
-15894
-15597
-15161
-14626
-14001
-13262
-12454
-11590
-10651
-9683
-8703
-7693
-6701
-5745
-4806
-3930
-3134
-2395
-1758
-1235
-799
-490
-315
-242
-304
-504
-803
-1228
-1776
-2402
-3130
-3952
-4817
-5745
-6727
-7708
-8707
-9712
-10670
-11598
-12487
-13285
-14013
-14663
-15187
-15612
-15935
-16111
-16173
-16125
-15926
-15616
-15205
-14658
-14020
-13306
-12486
-11609
-10695
-9715
-8722
-7737
-6733
-5764
-4850
-3962
-3153
-2439
-1790
-1254
-843
-522
-334
-286
-336
-523
-847
-1260
-1795
-2446
-3162
-3971
-4861
-5777
-6746
-7752
-8739
-9731
-10714
-11630
-12506
-13329
-14045
-14682
-15231
-15644
-15954
-16155
-16205
-16144
-15970
-15648
-15224
-14702
-14052
-13325
-12530
-11641
-10714
-9759
-8754
-7756
-6777
-5796
-4869
-4006
-3185
-2458
-1834
-1286
-862
-566
-366
-305
